<?xml version="1.0" encoding="UTF-8" standalone="no"?><svg xmlns="http://www.w3.org/2000/svg" xmlns:xlink="http://www.w3.org/1999/xlink" contentStyleType="text/css" height="321px" preserveAspectRatio="none" style="width:2105px;height:321px;background:#FFFFFF;" version="1.1" viewBox="0 0 2105 321" width="2105px" zoomAndPan="magnify"><defs/><g><!--MD5=[694b92fe469afed475f4a257d7638ea0]
class h-entry--><g id="elem_h-entry"><rect codeLine="1" fill="#F1F1F1" height="80.5938" id="h-entry" rx="2.5" ry="2.5" style="stroke:#181818;stroke-width:0.5;" width="244" x="657" y="68.31"/><ellipse cx="750.25" cy="84.31" fill="#FFFFFF" rx="11" ry="11" style="stroke:#A80036;stroke-width:1.0;"/><path d="M746.3906,77.9194 L748.8438,77.9194 L748.8438,82.6381 L751.9063,82.6381 L751.9063,77.9194 L754.3438,77.9194 L754.3438,90.31 L751.9063,90.31 L751.9063,84.7944 L748.8438,84.7944 L748.8438,90.31 L746.3906,90.31 L746.3906,77.9194 Z " fill="#000000"/><text fill="#000000" font-family="sans-serif" font-size="14" lengthAdjust="spacing" textLength="49" x="770.75" y="89.1567">h-entry</text><line style="stroke:#181818;stroke-width:0.5;" x1="658" x2="900" y1="100.31" y2="100.31"/><text fill="#000000" font-family="sans-serif" font-size="14" lengthAdjust="spacing" textLength="70" x="663" y="117.3051">Post Entry</text><line style="stroke:#181818;stroke-width:1.0;" x1="658" x2="900" y1="124.6069" y2="124.6069"/><line style="stroke:#181818;stroke-width:1.0;" x1="658" x2="900" y1="126.6069" y2="126.6069"/><text fill="#000000" font-family="monospace" font-size="14" lengthAdjust="spacing" textLength="232" x="663" y="141.602">&lt;div class="h-entry"&gt;..&lt;/div&gt;</text></g><!--MD5=[633b9146eebf4e7b44aff582189a7793]
class p-name--><g id="elem_p-name"><rect codeLine="7" fill="#F1F1F1" height="80.5938" id="p-name" rx="2.5" ry="2.5" style="stroke:#181818;stroke-width:0.5;" width="220" x="7" y="221.31"/><ellipse cx="86.25" cy="237.31" fill="#DA70D6" rx="11" ry="11" style="stroke:#A80036;stroke-width:1.0;"/><path d="M86.0469,232.9819 L86.0469,236.6069 L87.0469,236.6069 Q88.25,236.6069 88.7344,236.2006 Q89.2188,235.7944 89.2188,234.7944 Q89.2188,233.7944 88.7344,233.3881 Q88.25,232.9819 87.0469,232.9819 L86.0469,232.9819 Z M83.5938,230.9194 L86.9531,230.9194 Q89.5156,230.9194 90.6406,231.8413 Q91.7656,232.7475 91.7656,234.7944 Q91.7656,236.8413 90.6406,237.7631 Q89.5156,238.6694 86.9531,238.6694 L86.0469,238.6694 L86.0469,243.31 L83.5938,243.31 L83.5938,230.9194 Z " fill="#000000"/><text fill="#000000" font-family="sans-serif" font-size="14" lengthAdjust="spacing" textLength="53" x="106.75" y="242.1567">p-name</text><line style="stroke:#181818;stroke-width:0.5;" x1="8" x2="226" y1="253.31" y2="253.31"/><text fill="#000000" font-family="sans-serif" font-size="14" lengthAdjust="spacing" textLength="108" x="13" y="270.3051">Title of the post</text><line style="stroke:#181818;stroke-width:1.0;" x1="8" x2="226" y1="277.6069" y2="277.6069"/><line style="stroke:#181818;stroke-width:1.0;" x1="8" x2="226" y1="279.6069" y2="279.6069"/><text fill="#000000" font-family="monospace" font-size="14" lengthAdjust="spacing" textLength="208" x="13" y="294.602">&lt;h1 class="p-name"&gt;..&lt;/h1&gt;</text></g><!--MD5=[044f5c503ec3f9bb145faac6aa317c5f]
class u-url--><g id="elem_u-url"><rect codeLine="13" fill="#F1F1F1" height="80.5938" id="u-url" rx="2.5" ry="2.5" style="stroke:#181818;stroke-width:0.5;" width="276" x="262" y="221.31"/><ellipse cx="380.25" cy="237.31" fill="#7EC0EE" rx="11" ry="11" style="stroke:#A80036;stroke-width:1.0;"/><path d="M376.125,239.2319 L376.125,231.4194 L378.5781,231.4194 L378.5781,239.8569 Q378.5781,240.7788 379.0469,241.31 Q379.5313,241.8413 380.3594,241.8413 Q381.2031,241.8413 381.6719,241.31 Q382.1406,240.7788 382.1406,239.8569 L382.1406,231.4194 L384.5938,231.4194 L384.5938,239.2319 Q384.5938,241.7631 383.5938,242.9038 Q382.5938,244.0444 380.3594,244.0444 Q378.1406,244.0444 377.125,242.9038 Q376.125,241.7631 376.125,239.2319 Z " fill="#000000"/><text fill="#000000" font-family="sans-serif" font-size="14" lengthAdjust="spacing" textLength="31" x="400.75" y="242.1567">u-url</text><line style="stroke:#181818;stroke-width:0.5;" x1="263" x2="537" y1="253.31" y2="253.31"/><text fill="#000000" font-family="sans-serif" font-size="14" lengthAdjust="spacing" textLength="146" x="268" y="270.3051">Permalink of the post</text><line style="stroke:#181818;stroke-width:1.0;" x1="263" x2="537" y1="277.6069" y2="277.6069"/><line style="stroke:#181818;stroke-width:1.0;" x1="263" x2="537" y1="279.6069" y2="279.6069"/><text fill="#000000" font-family="monospace" font-size="14" lengthAdjust="spacing" textLength="264" x="268" y="294.602">&lt;a href=".." class="u-url"&gt;..&lt;/a&gt;</text></g><!--MD5=[90510e81b635488a2ee040c3fd64862b]
class u-syndication--><g id="elem_u-syndication"><rect codeLine="19" fill="#F1F1F1" height="80.5938" id="u-syndication" rx="2.5" ry="2.5" style="stroke:#181818;stroke-width:0.5;" width="484" x="1614" y="68.31"/><ellipse cx="1805.75" cy="84.31" fill="#7EC0EE" rx="11" ry="11" style="stroke:#A80036;stroke-width:1.0;"/><path d="M1801.625,86.2319 L1801.625,78.4194 L1804.0781,78.4194 L1804.0781,86.8569 Q1804.0781,87.7788 1804.5469,88.31 Q1805.0313,88.8413 1805.8594,88.8413 Q1806.7031,88.8413 1807.1719,88.31 Q1807.6406,87.7788 1807.6406,86.8569 L1807.6406,78.4194 L1810.0938,78.4194 L1810.0938,86.2319 Q1810.0938,88.7631 1809.0938,89.9038 Q1808.0938,91.0444 1805.8594,91.0444 Q1803.6406,91.0444 1802.625,89.9038 Q1801.625,88.7631 1801.625,86.2319 Z " fill="#000000"/><text fill="#000000" font-family="sans-serif" font-size="14" lengthAdjust="spacing" textLength="92" x="1826.25" y="89.1567">u-syndication</text><line style="stroke:#181818;stroke-width:0.5;" x1="1615" x2="2097" y1="100.31" y2="100.31"/><text fill="#000000" font-family="sans-serif" font-size="14" lengthAdjust="spacing" textLength="230" x="1620" y="117.3051">Link where the post is syndicated</text><line style="stroke:#181818;stroke-width:1.0;" x1="1615" x2="2097" y1="124.6069" y2="124.6069"/><line style="stroke:#181818;stroke-width:1.0;" x1="1615" x2="2097" y1="126.6069" y2="126.6069"/><text fill="#000000" font-family="monospace" font-size="14" lengthAdjust="spacing" textLength="472" x="1620" y="141.602">&lt;a href=".." class="u-syndication" rel="syndication"&gt;..&lt;/a&gt;</text></g><!--MD5=[233ec2667b0a9c130dc01e7702846056]
class dt-published--><g id="elem_dt-published"><rect codeLine="25" fill="#F1F1F1" height="104.8906" id="dt-published" rx="2.5" ry="2.5" style="stroke:#181818;stroke-width:0.5;" width="412" x="573" y="209.31"/><ellipse cx="731.25" cy="225.31" fill="#008000" rx="11" ry="11" style="stroke:#A80036;stroke-width:1.0;"/><path d="M730.8438,221.1225 L730.8438,229.1069 L731.5,229.1069 Q732.9375,229.1069 733.5469,228.2006 Q734.1719,227.2788 734.1719,225.1069 Q734.1719,222.935 733.5469,222.0288 Q732.9375,221.1225 731.5,221.1225 L730.8438,221.1225 Z M728.3906,218.9194 L731.0156,218.9194 Q734.0469,218.9194 735.375,220.3725 Q736.7188,221.81 736.7188,225.1069 Q736.7188,228.4038 735.375,229.8569 Q734.0469,231.31 731.0156,231.31 L728.3906,231.31 L728.3906,218.9194 Z " fill="#000000"/><text fill="#000000" font-family="sans-serif" font-size="14" lengthAdjust="spacing" textLength="87" x="751.75" y="230.1567">dt-published</text><line style="stroke:#181818;stroke-width:0.5;" x1="574" x2="984" y1="241.31" y2="241.31"/><text fill="#000000" font-family="sans-serif" font-size="14" lengthAdjust="spacing" textLength="164" x="579" y="258.3051">Publish date of the post</text><line style="stroke:#181818;stroke-width:1.0;stroke-dasharray:1.0,2.0;" x1="574" x2="984" y1="265.6069" y2="265.6069"/><text fill="#000000" font-family="sans-serif" font-size="14" lengthAdjust="spacing" textLength="355" x="579" y="282.602">Go Date/time format: "2006-01-02T15:04:05-0700"</text><line style="stroke:#181818;stroke-width:1.0;" x1="574" x2="984" y1="289.9038" y2="289.9038"/><line style="stroke:#181818;stroke-width:1.0;" x1="574" x2="984" y1="291.9038" y2="291.9038"/><text fill="#000000" font-family="monospace" font-size="14" lengthAdjust="spacing" textLength="400" x="579" y="306.8989">&lt;time datetime=".." class="dt-published"&gt;..&lt;/time&gt;</text></g><!--MD5=[0fb7c80034a0b258d8c50823bd9a1eec]
class p-summary--><g id="elem_p-summary"><rect codeLine="33" fill="#F1F1F1" height="80.5938" id="p-summary" rx="2.5" ry="2.5" style="stroke:#181818;stroke-width:0.5;" width="260" x="1319" y="68.31"/><ellipse cx="1406.25" cy="84.31" fill="#DA70D6" rx="11" ry="11" style="stroke:#A80036;stroke-width:1.0;"/><path d="M1406.0469,79.9819 L1406.0469,83.6069 L1407.0469,83.6069 Q1408.25,83.6069 1408.7344,83.2006 Q1409.2188,82.7944 1409.2188,81.7944 Q1409.2188,80.7944 1408.7344,80.3881 Q1408.25,79.9819 1407.0469,79.9819 L1406.0469,79.9819 Z M1403.5938,77.9194 L1406.9531,77.9194 Q1409.5156,77.9194 1410.6406,78.8413 Q1411.7656,79.7475 1411.7656,81.7944 Q1411.7656,83.8413 1410.6406,84.7631 Q1409.5156,85.6694 1406.9531,85.6694 L1406.0469,85.6694 L1406.0469,90.31 L1403.5938,90.31 L1403.5938,77.9194 Z " fill="#000000"/><text fill="#000000" font-family="sans-serif" font-size="14" lengthAdjust="spacing" textLength="77" x="1426.75" y="89.1567">p-summary</text><line style="stroke:#181818;stroke-width:0.5;" x1="1320" x2="1578" y1="100.31" y2="100.31"/><text fill="#000000" font-family="sans-serif" font-size="14" lengthAdjust="spacing" textLength="225" x="1325" y="117.3051">Summary/description of the post</text><line style="stroke:#181818;stroke-width:1.0;" x1="1320" x2="1578" y1="124.6069" y2="124.6069"/><line style="stroke:#181818;stroke-width:1.0;" x1="1320" x2="1578" y1="126.6069" y2="126.6069"/><text fill="#000000" font-family="monospace" font-size="14" lengthAdjust="spacing" textLength="248" x="1325" y="141.602">&lt;div class="p-summary"&gt;..&lt;/div&gt;</text></g><!--MD5=[e249624d9f3e264ac16ac55a85d44401]
class u-author--><g id="elem_u-author"><rect codeLine="39" fill="#F1F1F1" height="80.5938" id="u-author" rx="2.5" ry="2.5" style="stroke:#181818;stroke-width:0.5;" width="348" x="936" y="68.31"/><ellipse cx="1076.25" cy="84.31" fill="#7EC0EE" rx="11" ry="11" style="stroke:#A80036;stroke-width:1.0;"/><path d="M1072.125,86.2319 L1072.125,78.4194 L1074.5781,78.4194 L1074.5781,86.8569 Q1074.5781,87.7788 1075.0469,88.31 Q1075.5313,88.8413 1076.3594,88.8413 Q1077.2031,88.8413 1077.6719,88.31 Q1078.1406,87.7788 1078.1406,86.8569 L1078.1406,78.4194 L1080.5938,78.4194 L1080.5938,86.2319 Q1080.5938,88.7631 1079.5938,89.9038 Q1078.5938,91.0444 1076.3594,91.0444 Q1074.1406,91.0444 1073.125,89.9038 Q1072.125,88.7631 1072.125,86.2319 Z " fill="#000000"/><text fill="#000000" font-family="sans-serif" font-size="14" lengthAdjust="spacing" textLength="59" x="1096.75" y="89.1567">u-author</text><line style="stroke:#181818;stroke-width:0.5;" x1="937" x2="1283" y1="100.31" y2="100.31"/><text fill="#000000" font-family="sans-serif" font-size="14" lengthAdjust="spacing" textLength="80" x="942" y="117.3051">Post author</text><line style="stroke:#181818;stroke-width:1.0;" x1="937" x2="1283" y1="124.6069" y2="124.6069"/><line style="stroke:#181818;stroke-width:1.0;" x1="937" x2="1283" y1="126.6069" y2="126.6069"/><text fill="#000000" font-family="monospace" font-size="14" lengthAdjust="spacing" textLength="336" x="942" y="141.602">&lt;a href="HOMEPAGE" class="u-author"&gt;..&lt;/a&gt;</text></g><!--MD5=[f4cf73c3504de361f0e7d539892188d4]
class e-content--><g id="elem_e-content"><rect codeLine="45" fill="#F1F1F1" height="80.5938" id="e-content" rx="2.5" ry="2.5" style="stroke:#181818;stroke-width:0.5;" width="260" x="1020" y="221.31"/><ellipse cx="1111.75" cy="237.31" fill="#FF0000" rx="11" ry="11" style="stroke:#A80036;stroke-width:1.0;"/><path d="M1115.8594,243.31 L1108.1406,243.31 L1108.1406,230.9194 L1115.8594,230.9194 L1115.8594,233.0756 L1110.5938,233.0756 L1110.5938,235.7475 L1115.3594,235.7475 L1115.3594,237.9038 L1110.5938,237.9038 L1110.5938,241.1538 L1115.8594,241.1538 L1115.8594,243.31 Z " fill="#000000"/><text fill="#000000" font-family="sans-serif" font-size="14" lengthAdjust="spacing" textLength="68" x="1132.25" y="242.1567">e-content</text><line style="stroke:#181818;stroke-width:0.5;" x1="1021" x2="1279" y1="253.31" y2="253.31"/><text fill="#000000" font-family="sans-serif" font-size="14" lengthAdjust="spacing" textLength="89" x="1026" y="270.3051">Post content</text><line style="stroke:#181818;stroke-width:1.0;" x1="1021" x2="1279" y1="277.6069" y2="277.6069"/><line style="stroke:#181818;stroke-width:1.0;" x1="1021" x2="1279" y1="279.6069" y2="279.6069"/><text fill="#000000" font-family="monospace" font-size="14" lengthAdjust="spacing" textLength="248" x="1026" y="294.602">&lt;div class="e-content"&gt;..&lt;/div&gt;</text></g><!--MD5=[2fa163eeef3d220304f6265b6420eb6b]
class p-category--><g id="elem_p-category"><rect codeLine="51" fill="#F1F1F1" height="80.5938" id="p-category" rx="2.5" ry="2.5" style="stroke:#181818;stroke-width:0.5;" width="364" x="1315" y="221.31"/><ellipse cx="1455.75" cy="237.31" fill="#DA70D6" rx="11" ry="11" style="stroke:#A80036;stroke-width:1.0;"/><path d="M1455.5469,232.9819 L1455.5469,236.6069 L1456.5469,236.6069 Q1457.75,236.6069 1458.2344,236.2006 Q1458.7188,235.7944 1458.7188,234.7944 Q1458.7188,233.7944 1458.2344,233.3881 Q1457.75,232.9819 1456.5469,232.9819 L1455.5469,232.9819 Z M1453.0938,230.9194 L1456.4531,230.9194 Q1459.0156,230.9194 1460.1406,231.8413 Q1461.2656,232.7475 1461.2656,234.7944 Q1461.2656,236.8413 1460.1406,237.7631 Q1459.0156,238.6694 1456.4531,238.6694 L1455.5469,238.6694 L1455.5469,243.31 L1453.0938,243.31 L1453.0938,230.9194 Z " fill="#000000"/><text fill="#000000" font-family="sans-serif" font-size="14" lengthAdjust="spacing" textLength="74" x="1476.25" y="242.1567">p-category</text><line style="stroke:#181818;stroke-width:0.5;" x1="1316" x2="1678" y1="253.31" y2="253.31"/><text fill="#000000" font-family="sans-serif" font-size="14" lengthAdjust="spacing" textLength="187" x="1321" y="270.3051">Tag, category, series name</text><line style="stroke:#181818;stroke-width:1.0;" x1="1316" x2="1678" y1="277.6069" y2="277.6069"/><line style="stroke:#181818;stroke-width:1.0;" x1="1316" x2="1678" y1="279.6069" y2="279.6069"/><text fill="#000000" font-family="monospace" font-size="14" lengthAdjust="spacing" textLength="352" x="1321" y="294.602">&lt;a href="TAGPAGE" class="p-category"&gt;TAG&lt;/a&gt;</text></g><!--MD5=[06eadfa5fba9d8a2b78de022d60649bb]
reverse link h-entry to p-name--><g id="link_h-entry_p-name"><path codeLine="57" d="M643.7,127.27 C534.47,143.2 377.53,170.25 244,209.31 C232.24,212.75 220.07,216.89 208.14,221.31 " fill="none" id="h-entry-backto-p-name" style="stroke:#181818;stroke-width:1.0;"/><polygon fill="#181818" points="656.78,125.39,650.2703,122.2878,644.903,127.1037,651.4127,130.2058,656.78,125.39" style="stroke:#181818;stroke-width:1.0;"/></g><!--MD5=[f6c5ea478718c0b6b1182b9e147bb919]
reverse link h-entry to u-url--><g id="link_h-entry_u-url"><path codeLine="58" d="M667.17,154.37 C613.92,175.58 550.77,200.74 499.24,221.27 " fill="none" id="h-entry-backto-u-url" style="stroke:#181818;stroke-width:1.0;"/><polygon fill="#181818" points="679.42,149.48,672.3651,147.9872,668.2737,153.9253,675.3286,155.4181,679.42,149.48" style="stroke:#181818;stroke-width:1.0;"/></g><!--MD5=[61260656f069ab3def11f22354db2d2d]
reverse link h-entry to u-syndication--><g id="link_h-entry_u-syndication"><path codeLine="59" d="M864.54,62.72 C887.29,52.66 912.29,43.48 936.5,38.31 C1076.24,8.46 1437.72,20.52 1579.5,38.31 C1627.67,44.35 1679.48,56.1 1725.08,68.3 " fill="none" id="h-entry-backto-u-syndication" style="stroke:#181818;stroke-width:1.0;"/><polygon fill="#181818" points="852.51,68.22,859.6293,69.367,863.4263,63.2365,856.307,62.0895,852.51,68.22" style="stroke:#181818;stroke-width:1.0;"/></g><!--MD5=[7f0d0f2e4eaf91813f7081d897347cca]
reverse link h-entry to p-summary--><g id="link_h-entry_p-summary"><path codeLine="60" d="M864.54,62.72 C887.29,52.66 912.29,43.48 936.5,38.31 C1087.75,6 1132.99,7.21 1284.5,38.31 C1314.18,44.4 1345.11,56.08 1372.04,68.2 " fill="none" id="h-entry-backto-p-summary" style="stroke:#181818;stroke-width:1.0;"/><polygon fill="#181818" points="852.51,68.22,859.6293,69.367,863.4263,63.2365,856.307,62.0895,852.51,68.22" style="stroke:#181818;stroke-width:1.0;"/></g><!--MD5=[0bdef9ca19bc33ec49fba8a13cf7392b]
reverse link h-entry to u-author--><g id="link_h-entry_u-author"><path codeLine="61" d="M914.46,108.81 C921.59,108.81 928.72,108.81 935.85,108.81 " fill="none" id="h-entry-backto-u-author" style="stroke:#181818;stroke-width:1.0;"/><polygon fill="#181818" points="901.19,108.81,907.19,112.81,913.19,108.81,907.19,104.81,901.19,108.81" style="stroke:#181818;stroke-width:1.0;"/></g><!--MD5=[6a4eb59557f0543c2e0f309ba3191a79]
reverse link h-entry to dt-published--><g id="link_h-entry_dt-published"><path codeLine="62" d="M779,162.85 C779,177.88 779,194.23 779,209.18 " fill="none" id="h-entry-backto-dt-published" style="stroke:#181818;stroke-width:1.0;"/><polygon fill="#181818" points="779,149.48,775,155.48,779,161.48,783,155.48,779,149.48" style="stroke:#181818;stroke-width:1.0;"/></g><!--MD5=[0488abe00b521acf2981928a66f16eda]
reverse link h-entry to e-content--><g id="link_h-entry_e-content"><path codeLine="63" d="M888.8,154.5 C940.86,175.69 1002.52,200.78 1052.85,221.27 " fill="none" id="h-entry-backto-e-content" style="stroke:#181818;stroke-width:1.0;"/><polygon fill="#181818" points="876.48,149.48,880.5301,155.4463,887.5952,154.0025,883.5451,148.0362,876.48,149.48" style="stroke:#181818;stroke-width:1.0;"/></g><!--MD5=[2ee8ea33b101a699faba3e6ed3152bbe]
reverse link h-entry to p-category--><g id="link_h-entry_p-category"><path codeLine="64" d="M914.08,148.21 C915.73,148.59 917.37,148.95 919,149.31 C1085.58,185.86 1131.03,174.57 1298,209.31 C1315.21,212.89 1333.16,217 1350.93,221.3 " fill="none" id="h-entry-backto-p-category" style="stroke:#181818;stroke-width:1.0;"/><polygon fill="#181818" points="901.33,145.23,906.257,150.4954,913.0124,147.9726,908.0854,142.7072,901.33,145.23" style="stroke:#181818;stroke-width:1.0;"/></g><!--MD5=[b063b1b19f7145b2560a4a59b9240e96]
@startuml
class h-entry << (H,white) >> {
  Post Entry
  ==
  ""<div class="h-entry">..</div>""
}

class p-name << (P,orchid) >> {
  Title of the post
  ==
  ""<h1 class="p-name">..</h1>""
}

class u-url << (U,#7EC0EE) >> {
  Permalink of the post
  ==
  ""<a href=".." class="u-url">..</a>""
}

class u-syndication << (U,#7EC0EE) >> {
  Link where the post is syndicated
  ==
  ""<a href=".." class="u-syndication" rel="syndication">..</a>""
}

class dt-published << (D,green) >> {
  Publish date of the post
  ..
  Go Date/time format: "2006-01-02T15:04:05-0700"
  ==
  ""<time datetime=".." class="dt-published">..</time>""
}

class p-summary << (P,orchid) >> {
  Summary/description of the post
  ==
  ""<div class="p-summary">..</div>""
}

class u-author << (U,#7EC0EE) >> {
  Post author
  ==
  ""<a href="HOMEPAGE" class="u-author">..</a>""
}

class e-content << (E,red) >> {
  Post content
  ==
  ""<div class="e-content">..</div>""
}

class p-category << (P,orchid) >> {
  Tag, category, series name
  ==
  ""<a href="TAGPAGE" class="p-category">TAG</a>""
}

"p-name" -up-* "h-entry"
"u-url" -up-* "h-entry"
"u-syndication" -left-* "h-entry"
"h-entry" *-right- "p-summary"
"h-entry" *-right- "u-author"
"h-entry" *-down- "dt-published"
"h-entry" *-down- "e-content"
"h-entry" *-down- "p-category"
@enduml

PlantUML version 1.2022.2(Sat Mar 05 11:30:19 EST 2022)
(GPL source distribution)
Java Runtime: OpenJDK Runtime Environment
JVM: OpenJDK 64-Bit Server VM
Default Encoding: UTF-8
Language: en
Country: US
--></g></svg>