<?xml version="1.0" encoding="UTF-8" standalone="no"?><svg xmlns="http://www.w3.org/2000/svg" xmlns:xlink="http://www.w3.org/1999/xlink" contentStyleType="text/css" height="46px" preserveAspectRatio="none" style="width:398px;height:46px;background:#FFFFFF;" version="1.1" viewBox="0 0 398 46" width="398px" zoomAndPan="magnify"><defs/><g><ellipse cx="16" cy="24" fill="#222222" rx="10" ry="10" style="stroke:none;stroke-width:1.0;"/><rect fill="#F1F1F1" height="33.9688" rx="12.5" ry="12.5" style="stroke:#181818;stroke-width:0.5;" width="94" x="46" y="7"/><text fill="#000000" font-family="sans-serif" font-size="12" lengthAdjust="spacing" textLength="74" x="56" y="28.1387">First Activity</text><rect fill="#F1F1F1" height="33.9688" rx="12.5" ry="12.5" style="stroke:#181818;stroke-width:0.5;" width="114" x="160" y="7"/><text fill="#000000" font-family="sans-serif" font-size="12" lengthAdjust="spacing" textLength="94" x="170" y="28.1387">Second Activity</text><rect fill="#F1F1F1" height="33.9688" rx="12.5" ry="12.5" style="stroke:#181818;stroke-width:0.5;" width="98" x="294" y="7"/><text fill="#000000" font-family="sans-serif" font-size="12" lengthAdjust="spacing" textLength="78" x="304" y="28.1387">Third Activity</text><!--MD5=[7b51c630cb61ed9b5d850ed70c977c40]
link start to First Activity--><g id="link_start_First Activity"><path d="M26.23,24 C31.02,24 35.8,24 40.59,24 " fill="none" id="start-to-First Activity" style="stroke:#181818;stroke-width:1.0;"/><polygon fill="#181818" points="45.79,24,36.79,20,40.79,24,36.79,28,45.79,24" style="stroke:#181818;stroke-width:1.0;"/></g><!--MD5=[6bcf6ea5361ee4e59421f63d99fbee0a]
link First Activity to Second Activity--><g id="link_First Activity_Second Activity"><path d="M140.47,24 C145.23,24 149.98,24 154.74,24 " fill="none" id="First Activity-to-Second Activity" style="stroke:#181818;stroke-width:1.0;"/><polygon fill="#181818" points="159.9,24,150.9,20,154.9,24,150.9,28,159.9,24" style="stroke:#181818;stroke-width:1.0;"/></g><!--MD5=[8a67e0603365ae780847bc316118f2ae]
link Second Activity to Third Activity--><g id="link_Second Activity_Third Activity"><path d="M274.09,24 C278.9,24 283.71,24 288.52,24 " fill="none" id="Second Activity-to-Third Activity" style="stroke:#181818;stroke-width:1.0;"/><polygon fill="#181818" points="293.74,24,284.74,20,288.74,24,284.74,28,293.74,24" style="stroke:#181818;stroke-width:1.0;"/></g><!--MD5=[2171f7f3cd589e8ae2f208e9adae35de]
@startuml
(*) -> "First Activity"
-> "Second Activity"
-> "Third Activity"
@enduml

PlantUML version 1.2022.2(Sat Mar 05 11:30:19 EST 2022)
(GPL source distribution)
Java Runtime: OpenJDK Runtime Environment
JVM: OpenJDK 64-Bit Server VM
Default Encoding: UTF-8
Language: en
Country: US
--></g></svg>