<?xml version="1.0" encoding="UTF-8" standalone="no"?><svg xmlns="http://www.w3.org/2000/svg" xmlns:xlink="http://www.w3.org/1999/xlink" contentStyleType="text/css" height="216px" preserveAspectRatio="none" style="width:200px;height:216px;background:#FFFFFF;" version="1.1" viewBox="0 0 200 216" width="200px" zoomAndPan="magnify"><defs/><g><!--MD5=[03c9795141fffc1586b10a901fd13311]
cluster a--><g id="cluster_a"><rect height="203" rx="2.5" ry="2.5" style="stroke:#181818;stroke-width:1.0;fill:none;" width="187" x="7" y="7"/><text fill="#000000" font-family="sans-serif" font-size="14" font-weight="bold" lengthAdjust="spacing" textLength="171" x="15" y="21.9951">&lt;html&gt;, &lt;body&gt;, etc.</text></g><!--MD5=[fc729ae40511b638ec1ee6febf041dd5]
cluster b--><g id="cluster_b"><rect fill="#FAEBD7" height="136" rx="2.5" ry="2.5" style="stroke:#181818;stroke-width:1.0;" width="124" x="38" y="50"/><text fill="#000000" font-family="sans-serif" font-size="14" font-weight="bold" lengthAdjust="spacing" textLength="62" x="69" y="64.9951">&lt;div&gt;...</text></g><!--MD5=[8e9b2d9d80e066cced8e5d90e9bdea61]
entity c--><g id="elem_c"><rect fill="#F1F1F1" height="85.1875" rx="2.5" ry="2.5" style="stroke:#181818;stroke-width:0.5;" width="93" x="53.5" y="85"/><text fill="#000000" font-family="sans-serif" font-size="14" lengthAdjust="spacing" textLength="73" x="63.5" y="107.9951">&lt;video&gt;...</text><text fill="#000000" font-family="sans-serif" font-size="14" lengthAdjust="spacing" textLength="4" x="63.5" y="124.292"> </text><text fill="#000000" font-family="sans-serif" font-size="14" lengthAdjust="spacing" textLength="4" x="63.5" y="140.5889"> </text><text fill="#000000" font-family="sans-serif" font-size="14" lengthAdjust="spacing" textLength="4" x="63.5" y="156.8857"> </text></g><!--MD5=[f1f1888f0c4db83d2c583f5a8eb5ff1f]
@startuml
rectangle "<html>, <body>, etc." as a  {
  rectangle "<div>..." as b #antiquewhite {
    rectangle "<video>...\n\n\n" as c
  }
}
@enduml

PlantUML version 1.2022.2(Sat Mar 05 11:30:19 EST 2022)
(GPL source distribution)
Java Runtime: OpenJDK Runtime Environment
JVM: OpenJDK 64-Bit Server VM
Default Encoding: UTF-8
Language: en
Country: US
--></g></svg>