<?xml version="1.0" encoding="UTF-8" standalone="no"?><svg xmlns="http://www.w3.org/2000/svg" xmlns:xlink="http://www.w3.org/1999/xlink" contentStyleType="text/css" height="332px" preserveAspectRatio="none" style="width:112px;height:332px;background:#FFFFFF;" version="1.1" viewBox="0 0 112 332" width="112px" zoomAndPan="magnify"><defs/><g><g id="orig"><rect fill="#FFFF00" height="50" rx="12.5" ry="12.5" style="stroke:#181818;stroke-width:0.5;" width="92" x="10" y="86"/><line style="stroke:#181818;stroke-width:0.5;" x1="10" x2="102" y1="112.2969" y2="112.2969"/><text fill="#000000" font-family="sans-serif" font-size="14" lengthAdjust="spacing" textLength="72" x="20" y="103.9951">Original Fn</text></g><g id="adv"><rect fill="#F1F1F1" height="50" rx="12.5" ry="12.5" style="stroke:#181818;stroke-width:0.5;" width="98" x="7" y="196"/><line style="stroke:#181818;stroke-width:0.5;" x1="7" x2="105" y1="222.2969" y2="222.2969"/><text fill="#000000" font-family="sans-serif" font-size="14" lengthAdjust="spacing" textLength="78" x="17" y="213.9951">Advising Fn</text></g><ellipse cx="56" cy="16" fill="#222222" rx="10" ry="10" style="stroke:none;stroke-width:1.0;"/><ellipse cx="56" cy="316" fill="none" rx="10" ry="10" style="stroke:#222222;stroke-width:1.0;"/><ellipse cx="56.5" cy="316.5" fill="#222222" rx="6" ry="6" style="stroke:none;stroke-width:1.0;"/><!--MD5=[d4ec8946d63e61d5a6b6c8f3d6b08a40]
link *start to orig--><g id="link_*start_orig"><path d="M56,26.26 C56,38.86 56,61.98 56,80.74 " fill="none" id="*start-to-orig" style="stroke:#181818;stroke-width:1.0;"/><polygon fill="#181818" points="56,85.91,60,76.91,56,80.91,52,76.91,56,85.91" style="stroke:#181818;stroke-width:1.0;"/></g><!--MD5=[f05112d059a840303c1c4cc281dfeb63]
link orig to adv--><g id="link_orig_adv"><path d="M56,136.24 C56,152.36 56,173.62 56,190.69 " fill="none" id="orig-to-adv" style="stroke:#181818;stroke-width:1.0;"/><polygon fill="#181818" points="56,195.84,60,186.84,56,190.84,52,186.84,56,195.84" style="stroke:#181818;stroke-width:1.0;"/></g><!--MD5=[2555e3bf53d79e7ee53609ff507cbb69]
link adv to *end--><g id="link_adv_*end"><path d="M56,246.43 C56,263.54 56,285.83 56,300.27 " fill="none" id="adv-to-*end" style="stroke:#181818;stroke-width:1.0;"/><polygon fill="#181818" points="56,305.58,60,296.58,56,300.58,52,296.58,56,305.58" style="stroke:#181818;stroke-width:1.0;"/></g><!--MD5=[1e1cae6e31f4991fd6b74c2d9f919787]
@startuml
state "Original Fn" as orig #yellow
state "Advising Fn" as adv

[*] - -> orig
orig - -> adv
adv - -> [*]
@enduml

PlantUML version 1.2022.5(Sat Apr 30 06:55:52 EDT 2022)
(GPL source distribution)
Java Runtime: OpenJDK Runtime Environment
JVM: OpenJDK 64-Bit Server VM
Default Encoding: UTF-8
Language: en
Country: US
--></g></svg>